ULA/simulation/qsim/ula.msim.vcd
$comment
	File created using the following command:
		vcd file ula.msim.vcd -direction
$end
$date
	Thu Jun 27 22:56:13 2019
$end
$version
	ModelSim Version 10.1d
$end
$timescale
	1ps
$end
$scope module ula_vlg_vec_tst $end
$var reg 8 ! a [7:0] $end
$var reg 8 " b [7:0] $end
$var reg 3 # operacao [2:0] $end
$var wire 1 $ NZ [1] $end
$var wire 1 % NZ [0] $end
$var wire 1 & y [7] $end
$var wire 1 ' y [6] $end
$var wire 1 ( y [5] $end
$var wire 1 ) y [4] $end
$var wire 1 * y [3] $end
$var wire 1 + y [2] $end
$var wire 1 , y [1] $end
$var wire 1 - y [0] $end
$var wire 1 . sampler $end
$scope module i1 $end
$var wire 1 / gnd $end
$var wire 1 0 vcc $end
$var wire 1 1 unknown $end
$var tri1 1 2 devclrn $end
$var tri1 1 3 devpor $end
$var tri1 1 4 devoe $end
$var wire 1 5 total|S6|Co~0_combout $end
$var wire 1 6 total|S3|Co~0_combout $end
$var wire 1 7 total|S6|S~0_combout $end
$var wire 1 8 total|S3|S~0_combout $end
$var wire 1 9 Mux3~0_combout $end
$var wire 1 : Mux6~0_combout $end
$var wire 1 ; Mux0~0_combout $end
$var wire 1 < Mux0~1_combout $end
$var wire 1 = Mux8~0_combout $end
$var wire 1 > Mux1~1_combout $end
$var wire 1 ? Mux1~0_combout $end
$var wire 1 @ total|S1|S~0_combout $end
$var wire 1 A Mux1~2_combout $end
$var wire 1 B Mux2~0_combout $end
$var wire 1 C total|S1|Co~0_combout $end
$var wire 1 D total|S2|S~0_combout $end
$var wire 1 E Mux2~1_combout $end
$var wire 1 F Mux2~2_combout $end
$var wire 1 G Mux3~1_combout $end
$var wire 1 H Mux3~2_combout $end
$var wire 1 I Mux4~0_combout $end
$var wire 1 J y~9_combout $end
$var wire 1 K total|S3|Co~1_combout $end
$var wire 1 L total|S4|S~combout $end
$var wire 1 M Mux4~1_combout $end
$var wire 1 N Mux4~2_combout $end
$var wire 1 O total|S4|Co~0_combout $end
$var wire 1 P total|S5|S~combout $end
$var wire 1 Q Mux5~0_combout $end
$var wire 1 R Mux5~1_combout $end
$var wire 1 S Mux5~2_combout $end
$var wire 1 T Mux6~1_combout $end
$var wire 1 U Mux6~2_combout $end
$var wire 1 V total|S6|Co~1_combout $end
$var wire 1 W Mux7~5_combout $end
$var wire 1 X Mux7~2_combout $end
$var wire 1 Y Mux7~3_combout $end
$var wire 1 Z Mux7~4_combout $end
$var wire 1 [ total|S3|S~combout $end
$var wire 1 \ Z_resultado~0_combout $end
$var wire 1 ] Z_resultado~1_combout $end
$var wire 1 ^ y~8_combout $end
$var wire 1 _ total|S7|S~combout $end
$var wire 1 ` total|S6|S~combout $end
$var wire 1 a Z_resultado~2_combout $end
$var wire 1 b b~combout [7] $end
$var wire 1 c b~combout [6] $end
$var wire 1 d b~combout [5] $end
$var wire 1 e b~combout [4] $end
$var wire 1 f b~combout [3] $end
$var wire 1 g b~combout [2] $end
$var wire 1 h b~combout [1] $end
$var wire 1 i b~combout [0] $end
$var wire 1 j a~combout [7] $end
$var wire 1 k a~combout [6] $end
$var wire 1 l a~combout [5] $end
$var wire 1 m a~combout [4] $end
$var wire 1 n a~combout [3] $end
$var wire 1 o a~combout [2] $end
$var wire 1 p a~combout [1] $end
$var wire 1 q a~combout [0] $end
$var wire 1 r operacao~combout [2] $end
$var wire 1 s operacao~combout [1] $end
$var wire 1 t operacao~combout [0] $end
$upscope $end
$upscope $end
$enddefinitions $end
#0
$dumpvars
b11101010 !
b10000100 "
b0 #
0%
0$
0-
1,
1+
1*
0)
1(
1'
0&
x.
0/
10
x1
12
13
14
15
06
17
18
19
1:
0;
0<
1=
0>
0?
1@
1A
0B
0C
1D
0E
1F
1G
1H
0I
1J
0K
0L
0M
0N
0O
1P
0Q
0R
1S
1T
1U
0V
0W
1X
0Y
0Z
1[
1\
1]
0^
0_
1`
1a
0i
0h
1g
0f
0e
0d
0c
1b
0q
1p
0o
1n
0m
1l
1k
1j
0t
0s
0r
$end
#116000
b10100100 "
b10110100 "
1e
1d
0.
1L
0`
1V
0P
1N
0:
1_
1W
0S
0T
0X
1)
1$
0(
0U
1Z
0'
1&
#200000
b1 #
1t
1.
1R
1I
1B
1?
09
1S
0N
0F
0A
0G
0H
1(
0)
0+
0,
0*
#232000
b11110100 "
b11111100 "
b11111000 "
b11111010 "
b11011010 "
1h
0g
1f
0d
1c
0.
1C
0@
0?
1>
1E
0D
0[
1G
16
1`
0V
0R
1Q
1P
1^
07
1D
0\
1A
1H
1O
0L
1:
0S
0`
1\
1`
1V
0P
1T
1,
1*
0(
1U
1'
#333000
b1101010 !
b1101110 !
1o
0j
1.
1K
0D
08
0_
1Y
1X
0\
1[
0Z
0$
0&
#348000
b11011011 "
b11001011 "
b10001011 "
b10000011 "
1i
0f
0e
0c
0.
1\
0[
0G
06
0O
1M
1L
0^
17
0H
0V
1P
0:
1_
0W
0T
0*
0U
1$
0'
#400000
b11 #
b10 #
0t
1s
1.
0Y
0X
1R
0Q
0M
0E
1?
1;
19
1T
1Z
1S
1F
1<
1G
1U
1H
1&
1(
1+
1-
1'
1*
#464000
b11 "
b10011 "
b1010011 "
1e
1c
0b
0.
1O
1M
0L
0I
1^
1W
07
0_
0Z
1V
0P
1N
1_
0$
0&
1)
1$
#580000
b1010001 "
b1010000 "
b1011000 "
b1001000 "
0i
0h
1f
0e
1.
0\
0C
1@
0;
0?
1[
16
0O
0M
1L
1I
0K
1D
18
1\
0<
0`
0V
1P
0N
0[
0-
0)
#600000
b11 #
1t
0.
1X
1Q
1M
0I
0G
1E
0B
1?
1;
1:
1Z
1N
0H
1<
0T
0U
1&
1)
0*
1-
0'
#666000
b101110 !
b100110 !
b100100 !
b100000 !
0p
0o
0n
0k
1.
0@
0D
08
06
0^
0W
17
0\
1[
0L
0_
1`
0$
#696000
b1001100 "
b11001100 "
b11000100 "
b11010100 "
1g
0f
1e
1b
0.
1D
1B
0[
0J
1G
1L
1I
1_
0Z
1\
0F
1H
0N
1$
0&
0+
1*
0)
#800000
b111 #
b101 #
b100 #
0t
0s
1r
1.
0X
0R
0I
0B
0>
0;
09
1T
1Z
1U
0H
0<
0S
1N
1F
0A
0G
1&
1'
0*
0-
0(
1)
1+
0,
#812000
b11110100 "
b1110100 "
b1100100 "
0e
1d
0b
0.
0L
1I
0`
1V
1R
0P
0_
0Z
0N
0:
1_
1W
1S
0$
0&
0T
1X
0)
1$
1(
#928000
b1100101 "
b1100001 "
b1000001 "
1i
0g
0d
1.
1<
1;
0D
1B
1`
0V
0R
1P
0F
1:
0_
0W
0S
1-
1T
0X
0+
0$
0(
#999000
b0 !
b1 !
1q
0l
0.
0\
1@
0;
0P
0]
1\
1]
