MEM/simulation/qsim/MEM.msim.vcd
$comment
	File created using the following command:
		vcd file MEM.msim.vcd -direction
$end
$date
	Thu Jun 27 21:06:46 2019
$end
$version
	ModelSim Version 10.1d
$end
$timescale
	1ps
$end
$scope module celula_vlg_vec_tst $end
$var reg 1 ! clk $end
$var reg 8 " E [7:0] $end
$var reg 4 # P [3:0] $end
$var reg 1 $ rw $end
$var reg 4 % T [3:0] $end
$var wire 1 & M [7] $end
$var wire 1 ' M [6] $end
$var wire 1 ( M [5] $end
$var wire 1 ) M [4] $end
$var wire 1 * M [3] $end
$var wire 1 + M [2] $end
$var wire 1 , M [1] $end
$var wire 1 - M [0] $end
$var wire 1 . S [7] $end
$var wire 1 / S [6] $end
$var wire 1 0 S [5] $end
$var wire 1 1 S [4] $end
$var wire 1 2 S [3] $end
$var wire 1 3 S [2] $end
$var wire 1 4 S [1] $end
$var wire 1 5 S [0] $end
$var wire 1 6 sampler $end
$scope module i1 $end
$var wire 1 7 gnd $end
$var wire 1 8 vcc $end
$var wire 1 9 unknown $end
$var tri1 1 : devclrn $end
$var tri1 1 ; devpor $end
$var tri1 1 < devoe $end
$var wire 1 = FOR01~15 $end
$var wire 1 > FOR01~combout $end
$var wire 1 ? FOR01~16 $end
$var wire 1 @ FOR01~17 $end
$var wire 1 A FOR01~18 $end
$var wire 1 B FOR01~19 $end
$var wire 1 C FOR01~20 $end
$var wire 1 D FOR01~21 $end
$var wire 1 E clk~combout $end
$var wire 1 F rw~combout $end
$var wire 1 G en~1_combout $end
$var wire 1 H en~0_combout $end
$var wire 1 I en~combout $end
$var wire 1 J FOR01:0:cont1|qsignal~regout $end
$var wire 1 K S~0_combout $end
$var wire 1 L FOR01:1:cont1|qsignal~regout $end
$var wire 1 M S~1_combout $end
$var wire 1 N FOR01:2:cont1|qsignal~regout $end
$var wire 1 O S~2_combout $end
$var wire 1 P FOR01:3:cont1|qsignal~regout $end
$var wire 1 Q S~3_combout $end
$var wire 1 R FOR01:4:cont1|qsignal~regout $end
$var wire 1 S S~4_combout $end
$var wire 1 T FOR01:5:cont1|qsignal~regout $end
$var wire 1 U S~5_combout $end
$var wire 1 V FOR01:6:cont1|qsignal~regout $end
$var wire 1 W S~6_combout $end
$var wire 1 X FOR01:7:cont1|qsignal~regout $end
$var wire 1 Y S~7_combout $end
$var wire 1 Z P~combout [3] $end
$var wire 1 [ P~combout [2] $end
$var wire 1 \ P~combout [1] $end
$var wire 1 ] P~combout [0] $end
$var wire 1 ^ E~combout [7] $end
$var wire 1 _ E~combout [6] $end
$var wire 1 ` E~combout [5] $end
$var wire 1 a E~combout [4] $end
$var wire 1 b E~combout [3] $end
$var wire 1 c E~combout [2] $end
$var wire 1 d E~combout [1] $end
$var wire 1 e E~combout [0] $end
$var wire 1 f T~combout [3] $end
$var wire 1 g T~combout [2] $end
$var wire 1 h T~combout [1] $end
$var wire 1 i T~combout [0] $end
$upscope $end
$upscope $end
$enddefinitions $end
#0
$dumpvars
0!
b1011111 "
b0 #
1$
b101 %
0-
0,
0+
0*
0)
0(
0'
0&
05
04
03
02
01
00
0/
0.
x6
07
18
x9
1:
1;
1<
1=
1>
1?
1@
1A
1B
1C
1D
0E
1F
1G
1H
0I
0J
0K
0L
0M
0N
0O
0P
0Q
0R
0S
0T
0U
0V
0W
0X
0Y
0]
0\
0[
0Z
1e
1d
1c
1b
1a
0`
1_
0^
1i
0h
1g
0f
$end
#10000
1!
1E
06
0D
0C
0B
0A
0@
0?
0>
0=
#20000
0!
0E
16
1D
1C
1B
1A
1@
1?
1>
1=
#60000
1!
1E
06
0D
0C
0B
0A
0@
0?
0>
0=
#70000
0!
0E
16
1D
1C
1B
1A
1@
1?
1>
1=
#80000
b100 #
b101 #
1]
1[
06
0H
0G
1I
#90000
1!
1E
16
0D
0C
0B
0A
0@
0?
0>
0=
#100000
0!
0E
06
1D
1C
1B
1A
1@
1?
1>
1=
1V
1R
1P
1N
1L
1J
1'
1)
1*
1+
1,
1-
#130000
1!
1E
16
0D
0C
0B
0A
0@
0?
0>
0=
#140000
0!
0E
06
1D
1C
1B
1A
1@
1?
1>
1=
#150000
0$
0F
16
1W
1S
1Q
1O
1M
1K
1/
11
12
13
14
15
#180000
1!
1E
06
#200000
b1 %
b11 %
0!
1h
0g
0E
16
1H
1G
0W
0S
0Q
0O
0M
0K
0I
0/
01
02
03
04
05
#210000
1$
1F
06
#220000
1!
1E
16
0D
0C
0B
0A
0@
0?
0>
0=
#230000
0!
0E
06
1D
1C
1B
1A
1@
1?
1>
1=
#250000
0$
0F
16
#260000
1!
1E
06
#270000
0!
0E
16
#280000
b1 #
0[
06
0G
#290000
1!
1E
16
#300000
0!
0E
06
#310000
1$
1F
16
#320000
1!
1E
06
0D
0C
0B
0A
0@
0?
0>
0=
#333000
b11111 "
b111111 "
b101111 "
b101011 "
b101001 "
b101000 "
0e
0d
0c
0a
1`
0_
16
#350000
0!
0E
06
1D
1C
1B
1A
1@
1?
1>
1=
#360000
1!
1E
16
0D
0C
0B
0A
0@
0?
0>
0=
#370000
0!
0E
06
1D
1C
1B
1A
1@
1?
1>
1=
#380000
1!
1E
16
0D
0C
0B
0A
0@
0?
0>
0=
#390000
0!
0E
06
1D
1C
1B
1A
1@
1?
1>
1=
#400000
b1 %
1!
0h
1E
16
0H
0D
0C
0B
0A
0@
0?
0>
0=
1I
#450000
0!
0E
06
1D
1C
1B
1A
1@
1?
1>
1=
0V
1T
0R
0N
0L
0J
0'
1(
0)
0+
0,
0-
#460000
0$
1!
0F
1E
16
1U
1Q
10
12
#470000
0!
0E
06
#490000
b1001 %
b1000 %
b1100 %
1!
0i
1g
1f
1E
16
1H
1G
0U
0Q
0I
00
02
#500000
0!
0E
06
#510000
1$
1F
16
#520000
0$
0F
06
#530000
1!
1E
16
#560000
0!
0E
06
#580000
1!
1E
16
#590000
1$
1F
06
0D
0C
0B
0A
0@
0?
0>
0=
#610000
0!
0E
16
1D
1C
1B
1A
1@
1?
1>
1=
#620000
1!
1E
06
0D
0C
0B
0A
0@
0?
0>
0=
#640000
b1001 #
b1000 #
b1100 #
0!
0]
1[
1Z
0E
16
0H
0G
1D
1C
1B
1A
1@
1?
1>
1=
1I
#650000
1!
1E
06
0D
0C
0B
0A
0@
0?
0>
0=
#666000
b10101000 "
b10100000 "
b10110000 "
b10110100 "
b10110101 "
1e
1c
0b
1a
1^
16
#670000
0!
0E
06
1D
1C
1B
1A
1@
1?
1>
1=
1X
1R
0P
1N
1J
1&
1)
0*
1+
1-
#680000
1!
1E
16
0D
0C
0B
0A
0@
0?
0>
0=
#690000
0!
0E
06
1D
1C
1B
1A
1@
1?
1>
1=
#700000
1!
1E
16
0D
0C
0B
0A
0@
0?
0>
0=
#720000
b1101 %
b1001 %
0!
1i
0g
0E
06
1H
1G
1D
1C
1B
1A
1@
1?
1>
1=
0I
#730000
1!
1E
16
0D
0C
0B
0A
0@
0?
0>
0=
#740000
0!
0E
06
1D
1C
1B
1A
1@
1?
1>
1=
#750000
0$
0F
16
#760000
1!
1E
06
#790000
0!
0E
16
#800000
1$
1F
06
#810000
1!
1E
16
0D
0C
0B
0A
0@
0?
0>
0=
#820000
0$
0!
0F
0E
06
1D
1C
1B
1A
1@
1?
1>
1=
#830000
b1101 #
b1001 #
1!
1]
0[
1E
16
0H
0G
1Y
1U
1S
1O
1K
1I
1.
10
11
13
15
#850000
0!
0E
06
#860000
1!
1E
16
#870000
0!
0E
06
#880000
1!
1E
16
#890000
1$
0!
1F
0E
06
0Y
0U
0S
0O
0K
0.
00
01
03
05
#900000
1!
1E
16
0D
0C
0B
0A
0@
0?
0>
0=
#930000
0$
0!
0F
0E
06
1Y
1U
1S
1O
1K
1D
1C
1B
1A
1@
1?
1>
1=
1.
10
11
13
15
#950000
1!
1E
16
#970000
0!
0E
06
#999000
b10010101 "
b10101 "
b11101 "
b1101 "
b1001 "
b1000 "
0e
0c
1b
0a
0`
0^
16
